{
    "_id": "5bc24accb919f2010f7d579a",
    "tags": [
        "mod",
        "warframe",
        "shade"
    ],
    "icon": "icons/en/Ambush.bd6ac0ce71315652d5a7bdd9a80d0218.png",
    "thumb": "icons/en/thumbs/Ambush.bd6ac0ce71315652d5a7bdd9a80d0218.128x128.png",
    "icon_format": "port",
    "url_name": "ambush",
    "tradable": true,
    "en": {
        "item_name": "Ambush",
        "description": "Ambush is a mod that allows Shade to increase owner damage after breaking Ghost invisibility.",
        "wiki_link": "http://warframe.wikia.com/wiki/Ambush",
        "drop": [
            {
                "name": "Cephalon Simaris",
                "link": null
            }
        ]
    },
    "ru": {
        "item_name": "Ambush",
        "description": "Ambush is a mod that allows Shade to increase owner damage after breaking Ghost invisibility.",
        "wiki_link": "http://warframe.wikia.com/wiki/Ambush",
        "icon": null,
        "thumb": null,
        "drop": [
            {
                "name": "Cephalon Simaris",
                "link": null
            }
        ]
    },
    "rarity": "rare",
    "mod_max_rank": 5,
    "trading_tax": 8000
}