{
    "_id": "5beee8c13ffcc705699c511f",
    "tags": [
        "void relic"
    ],
    "icon": "icons/en/Axi_S4_Flawless.6272320ab2c0ac7f21406326b4c09f5b.png",
    "thumb": "icons/en/thumbs/Axi_S4_Flawless.6272320ab2c0ac7f21406326b4c09f5b.128x128.png",
    "icon_format": "port",
    "url_name": "axi_s4_flawless",
    "tradable": true,
    "en": {
        "item_name": "Axi S4 Flawless",
        "description": "<p>Void Relics are Orokin objects that can be opened to reveal valuable treasure enclosed within by completing Void Fissure missions. They are the principal means of acquiring Prime and Forma Blueprints.</p>",
        "wiki_link": "http://warframe.wikia.com/wiki/Void_Relic",
        "drop": []
    },
    "ru": {
        "item_name": "Акси S4 Бесподобная",
        "description": "<p>Void Relics are Orokin objects that can be opened to reveal valuable treasure enclosed within by completing Void Fissure missions. They are the principal means of acquiring Prime and Forma Blueprints.</p>",
        "wiki_link": "http://ru.warframe.wikia.com/wiki/%D0%A0%D0%B5%D0%BB%D0%B8%D0%BA%D0%B2%D0%B8%D1%8F_%D0%B1%D0%B5%D0%B7%D0%B4%D0%BD%D1%8B",
        "icon": null,
        "thumb": null,
        "drop": []
    }
}