{
    "_id": "5babd2404567de026e463bea",
    "tags": [
        "void relic"
    ],
    "icon": "icons/en/Axi_O4_Exceptional.99413ebefc5b87d57d9e5314265b56de.png",
    "thumb": "icons/en/thumbs/Axi_O4_Exceptional.99413ebefc5b87d57d9e5314265b56de.128x128.png",
    "icon_format": "port",
    "url_name": "axi_o4_exceptional",
    "tradable": true,
    "en": {
        "item_name": "Axi O4 Exceptional",
        "description": "<p>Void Relics are Orokin objects that can be opened to reveal valuable treasure enclosed within by completing Void Fissure missions. They are the principal means of acquiring Prime and Forma Blueprints.</p>",
        "wiki_link": "http://warframe.wikia.com/wiki/Void_Relic",
        "drop": []
    },
    "ru": {
        "item_name": "Акси O4 Необычная",
        "description": "<p>Реликвии Бездны — древние артефакты, которые могут быть открыты для получения ценных предметов после успешного запечатывания разрыва бездны.</p>",
        "wiki_link": "http://ru.warframe.wikia.com/wiki/%D0%A0%D0%B5%D0%BB%D0%B8%D0%BA%D0%B2%D0%B8%D1%8F_%D0%B1%D0%B5%D0%B7%D0%B4%D0%BD%D1%8B",
        "icon": null,
        "thumb": null,
        "drop": []
    }
}