{
    "_id": "5be5f59e3ffcc7038857f0f8",
    "tags": [
        "fish"
    ],
    "icon": "icons/en/Basic_Scrubber.af5305195564bb8354cce572d402dc52.png",
    "thumb": "icons/en/thumbs/Basic_Scrubber.af5305195564bb8354cce572d402dc52.128x128.png",
    "icon_format": "land",
    "url_name": "basic_scrubber",
    "tradable": true,
    "en": {
        "item_name": "Basic Scrubber",
        "description": "<p>Analyzes the growth of microbes dwelling in the aqua systems to monitor toxicity levels. It can be found in cave pools on Venus.</p>",
        "wiki_link": null,
        "drop": []
    },
    "ru": {
        "item_name": "Basic Scrubber",
        "description": "<p>Analyzes the growth of microbes dwelling in the aqua systems to monitor toxicity levels. It can be found in cave pools on Venus.</p>",
        "wiki_link": null,
        "icon": null,
        "thumb": null,
        "drop": []
    }
}