{
    "_id": "5be5f5a43ffcc7038857f137",
    "tags": [
        "fish"
    ],
    "icon": "icons/en/Basic_Kriller.febfc0126d2cc254e1337290f0fbf81d.png",
    "thumb": "icons/en/thumbs/Basic_Kriller.febfc0126d2cc254e1337290f0fbf81d.128x128.png",
    "icon_format": "land",
    "url_name": "basic_kriller",
    "tradable": true,
    "en": {
        "item_name": "Basic Kriller",
        "description": "<p>Identifies organic threats to Corpus operations in the Aqua Systems and eliminates them. It can be found in the lake on Venus.</p>",
        "wiki_link": null,
        "drop": []
    },
    "ru": {
        "item_name": "Basic Kriller",
        "description": "<p>Identifies organic threats to Corpus operations in the Aqua Systems and eliminates them. It can be found in the lake on Venus.</p>",
        "wiki_link": null,
        "icon": null,
        "thumb": null,
        "drop": []
    }
}