{
    "_id": "5be5f59d3ffcc7038857f0f2",
    "tags": [
        "fish"
    ],
    "icon": "icons/en/Basic_Longwinder.4e90bb2b9a7ae0353683da652e726f34.png",
    "thumb": "icons/en/thumbs/Basic_Longwinder.4e90bb2b9a7ae0353683da652e726f34.128x128.png",
    "icon_format": "land",
    "url_name": "basic_longwinder",
    "tradable": true,
    "en": {
        "item_name": "Basic Longwinder",
        "description": "<p>Repairs leaks and clear blockages within the aqua systems. It can be found in the lake on Venus.</p>",
        "wiki_link": null,
        "drop": []
    },
    "ru": {
        "item_name": "Basic Longwinder",
        "description": "<p>Repairs leaks and clear blockages within the aqua systems. It can be found in the lake on Venus.</p>",
        "wiki_link": null,
        "icon": null,
        "thumb": null,
        "drop": []
    }
}