{
    "_id": "54a74454e779892d5e515645",
    "tags": [
        "weapons",
        "mod",
        "rare"
    ],
    "icon": "icons/en/Blade_of_Truth.53d68caa8f7ae06642b2ed1fd8f3b6cd.png",
    "thumb": "icons/en/thumbs/Blade_of_Truth.53d68caa8f7ae06642b2ed1fd8f3b6cd.128x128.png",
    "icon_format": "port",
    "url_name": "blade_of_truth",
    "tradable": true,
    "en": {
        "item_name": "Blade of Truth",
        "description": "<p>The Blade of Truth mod is a Weapon Augment Mod that increases melee damage and Truth specifically for the Jaw Sword. It increases melee damage by 25% and Truth by 0.25 per rank, at a maximum of 100% and 1 at rank 3, respectively.</p>",
        "wiki_link": "http://warframe.wikia.com/wiki/Blade_of_Truth",
        "drop": [
            {
                "name": "Arbiters of Hexis Offering",
                "link": null
            }
        ]
    },
    "ru": {
        "item_name": "Клинок правды",
        "description": "<p>Клинок Правды — мод-аугмент для оружия Меч-Челюсть, который  увеличивает урон и даёт прирост Синдикат-эффекта - Правда.</p>",
        "wiki_link": "http://ru.warframe.wikia.com/wiki/%D0%9A%D0%BB%D0%B8%D0%BD%D0%BE%D0%BA_%D0%BF%D1%80%D0%B0%D0%B2%D0%B4%D1%8B",
        "icon": "icons/ru/Blade_of_Truth.ec5d8d3a9200cb4e31f4269d60a676b4.png",
        "thumb": "icons/ru/thumbs/Blade_of_Truth.ec5d8d3a9200cb4e31f4269d60a676b4.128x128.png",
        "drop": [
            {
                "name": "Arbiters of Hexis Offering",
                "link": null
            }
        ]
    },
    "rarity": "rare",
    "mod_max_rank": 3,
    "trading_tax": 8000
}