{
    "_id": "5be5f59f3ffcc7038857f0fe",
    "tags": [
        "mod",
        "staves",
        "conclave",
        "pvp"
    ],
    "icon": "icons/en/Crashing_Timber.78bf7c1c0cc21be71bee559092289015.png",
    "thumb": "icons/en/thumbs/Crashing_Timber.78bf7c1c0cc21be71bee559092289015.128x128.png",
    "icon_format": "port",
    "url_name": "crashing_timber",
    "tradable": true,
    "en": {
        "item_name": "Crashing Timber",
        "description": "<p>Fighting form devised for Conclave.</p>",
        "wiki_link": "https://warframe.fandom.com/wiki/Crashing_Timber",
        "drop": []
    },
    "ru": {
        "item_name": "Crashing Timber",
        "description": "<p>Fighting form devised for Conclave.</p>",
        "wiki_link": "https://warframe.fandom.com/wiki/Crashing_Timber",
        "icon": null,
        "thumb": null,
        "drop": []
    },
    "rarity": "uncommon",
    "mod_max_rank": 3,
    "trading_tax": 4000
}