{
    "_id": "5b2985e2eb069f04ea65b0f6",
    "tags": [
        "set",
        "melee",
        "prime"
    ],
    "icon": "icons/en/Destreza_Prime_Set.b1a1cc461a2cfcf9998f0588c8e932a4.png",
    "thumb": "icons/en/thumbs/Destreza_Prime_Set.b1a1cc461a2cfcf9998f0588c8e932a4.128x128.png",
    "icon_format": "land",
    "url_name": "destreza_prime_set",
    "tradable": true,
    "part_of_set": [
        "5b2985e2eb069f04ea65b0f6",
        "5b2985e0eb069f04ea65b0d8",
        "5b2985e3eb069f04ea65b0fb",
        "5b2985e3eb069f04ea65b0fd"
    ],
    "set_root": true,
    "en": {
        "item_name": "Destreza Prime Set",
        "description": "<p>Release Date: June 19, 2018</p><p>Destreza Prime is a Primed variant of the Tenno rapier Destreza.</p>",
        "wiki_link": "http://warframe.wikia.com/wiki/Destreza_Prime",
        "drop": [],
        "codex": "Next level initiative with this special rapier Grasp."
    },
    "ru": {
        "item_name": "Дестреза Прайм Комплект",
        "description": "<p>Release Date: June 19, 2018</p><p>Destreza Prime is a Primed variant of the Tenno rapier Destreza.</p>",
        "wiki_link": "http://warframe.wikia.com/wiki/Destreza_Prime",
        "icon": null,
        "thumb": null,
        "drop": []
    },
    "mastery_level": 10,
    "trading_tax": 2000
}