{
    "_id": "5be5f5a23ffcc7038857f119",
    "tags": [
        "mod",
        "beast"
    ],
    "icon": "icons/en/Flame_Gland.b9a389f2ecc15cef86b3879a3bf9f515.png",
    "thumb": "icons/en/thumbs/Flame_Gland.b9a389f2ecc15cef86b3879a3bf9f515.128x128.png",
    "icon_format": "port",
    "url_name": "flame_gland",
    "tradable": true,
    "en": {
        "item_name": "Flame Gland",
        "description": "<p>Increased Heat/Status Chance</p>",
        "wiki_link": "http://warframe.fandom.com/wiki/Flame_Gland",
        "drop": []
    },
    "ru": {
        "item_name": "Flame Gland",
        "description": "<p>Increased Heat/Status Chance</p>",
        "wiki_link": "http://warframe.fandom.com/wiki/Flame_Gland",
        "icon": null,
        "thumb": null,
        "drop": []
    },
    "rarity": "rare",
    "mod_max_rank": 3,
    "trading_tax": 8000
}