{
    "_id": "5be5f5a23ffcc7038857f117",
    "tags": [
        "mod",
        "beast"
    ],
    "icon": "icons/en/Frost_Jaw.4c65a46847aa389bd3be9a6ec0180d4e.png",
    "thumb": "icons/en/thumbs/Frost_Jaw.4c65a46847aa389bd3be9a6ec0180d4e.128x128.png",
    "icon_format": "port",
    "url_name": "frost_jaw",
    "tradable": true,
    "en": {
        "item_name": "Frost Jaw",
        "description": "<p>Increased Cold/Status Chance</p>",
        "wiki_link": "http://warframe.fandom.com/wiki/Frost_Jaw",
        "drop": []
    },
    "ru": {
        "item_name": "Frost Jaw",
        "description": "<p>Increased Cold/Status Chance</p>",
        "wiki_link": "http://warframe.fandom.com/wiki/Frost_Jaw",
        "icon": null,
        "thumb": null,
        "drop": []
    },
    "rarity": "rare",
    "mod_max_rank": 3,
    "trading_tax": 8000
}