{
    "_id": "5ab167b7b2b6a80475780fb5",
    "tags": [
        "parts",
        "prime",
        "handle"
    ],
    "icon": "icons/en/Kronen_Prime_Set.09023145e06199878b94a9c664e95ce7.png",
    "thumb": "icons/en/thumbs/Kronen_Prime_Set.09023145e06199878b94a9c664e95ce7.128x128.png",
    "icon_format": "port",
    "sub_icon": "sub_icons/handle_128x128.png",
    "url_name": "kronen_prime_handle",
    "tradable": true,
    "part_of_set": [
        "5ab167b7b2b6a80475780fb3",
        "5ab167b7b2b6a80475780fad",
        "5ab167b7b2b6a80475780fb5",
        "5ab167b9b2b6a80475780fd1"
    ],
    "set_root": false,
    "en": {
        "item_name": "Kronen Prime Handle",
        "description": "<p>The Kronen Prime is the Prime version of the Kronen tonfas.</p>",
        "wiki_link": "http://warframe.wikia.com/wiki/Kronen_Prime",
        "drop": [
            {
                "name": "Neo B4 Uncommon",
                "link": null
            }
        ]
    },
    "ru": {
        "item_name": "Кронен Прайм Рукоять",
        "description": "<p>Клинки былого, улучшенные для битв текущих.</p>",
        "wiki_link": "http://ru.warframe.wikia.com/wiki/%D0%9A%D1%80%D0%BE%D0%BD%D0%B5%D0%BD",
        "icon": null,
        "thumb": null,
        "drop": [
            {
                "name": "Нео B4 Необычная",
                "link": null
            }
        ]
    },
    "mastery_level": 8,
    "ducats": 45,
    "trading_tax": 2000
}