{
    "_id": "5beee8c23ffcc705699c5123",
    "tags": [
        "void relic"
    ],
    "icon": "icons/en/Neo_N9_Intact.0857605c97b4abe8d93c08a217cc284f.png",
    "thumb": "icons/en/thumbs/Neo_N9_Intact.0857605c97b4abe8d93c08a217cc284f.128x128.png",
    "icon_format": "port",
    "url_name": "neo_n9_intact",
    "tradable": true,
    "en": {
        "item_name": "Neo N9 Intact",
        "description": "<p>Void Relics are Orokin objects that can be opened to reveal valuable treasure enclosed within by completing Void Fissure missions. They are the principal means of acquiring Prime and Forma Blueprints.</p>",
        "wiki_link": "http://warframe.wikia.com/wiki/Void_Relic",
        "drop": []
    },
    "ru": {
        "item_name": "Нео N9 Нетронутая",
        "description": "<p>Void Relics are Orokin objects that can be opened to reveal valuable treasure enclosed within by completing Void Fissure missions. They are the principal means of acquiring Prime and Forma Blueprints.</p>",
        "wiki_link": "http://ru.warframe.wikia.com/wiki/%D0%A0%D0%B5%D0%BB%D0%B8%D0%BA%D0%B2%D0%B8%D1%8F_%D0%B1%D0%B5%D0%B7%D0%B4%D0%BD%D1%8B",
        "icon": null,
        "thumb": null,
        "drop": []
    }
}