{
    "_id": "5b2985e0eb069f04ea65b0e1",
    "tags": [
        "void relic"
    ],
    "icon": "icons/en/Neo_V7_Intact.e0e38afae723757487927845b35a81d2.png",
    "thumb": "icons/en/thumbs/Neo_V7_Intact.e0e38afae723757487927845b35a81d2.128x128.png",
    "icon_format": "port",
    "url_name": "neo_v7_intact",
    "tradable": true,
    "en": {
        "item_name": "Neo V7 Intact",
        "description": "<p>Void Relics are Orokin objects that can be opened to reveal valuable treasure enclosed within by completing Void Fissure missions. They are the principal means of acquiring Prime and Forma Blueprints.</p>",
        "wiki_link": "http://warframe.wikia.com/wiki/Void_Relic",
        "drop": []
    },
    "ru": {
        "item_name": "Нео V7 Нетронутая",
        "description": "<p>Реликвии Бездны — древние артефакты, которые могут быть открыты для получения ценных предметов после успешного запечатывания разрыва бездны.</p>",
        "wiki_link": "http://ru.warframe.wikia.com/wiki/%D0%A0%D0%B5%D0%BB%D0%B8%D0%BA%D0%B2%D0%B8%D1%8F_%D0%B1%D0%B5%D0%B7%D0%B4%D0%BD%D1%8B",
        "icon": null,
        "thumb": null,
        "drop": []
    }
}