{
    "_id": "56c3bbee5d2f0202da32e940",
    "tags": [
        "blueprint",
        "prime"
    ],
    "icon": "icons/en/Nikana_Prime_Set.2daac0807a52385bfcf62f71075f2221.png",
    "thumb": "icons/en/thumbs/Nikana_Prime_Set.2daac0807a52385bfcf62f71075f2221.128x128.png",
    "icon_format": "land",
    "sub_icon": "sub_icons/blueprint_128x128.png",
    "url_name": "nikana_prime_blueprint",
    "tradable": true,
    "part_of_set": [
        "56c3bbfc5d2f0202da32e943",
        "56c3bbf45d2f0202da32e941",
        "56c3bbee5d2f0202da32e940",
        "56c3bbf85d2f0202da32e942"
    ],
    "set_root": false,
    "en": {
        "item_name": "Nikana Prime Blueprint",
        "description": "<p>The Nikana Prime is the primed version of the Nikana, added in Hotfix 18.4.12.</p>",
        "wiki_link": "http://warframe.wikia.com/wiki/Nikana_Prime",
        "drop": [
            {
                "name": "Neo N5 Rare",
                "link": null
            },
            {
                "name": "Neo S8 Uncommon",
                "link": null
            },
            {
                "name": "Axi A1 Rare",
                "link": null
            }
        ],
        "codex": "An ancient blade predating the fall of the Orokin Empire. Forged using techniques lost over centuries, the edge remains sharper than that of modern Nikana."
    },
    "ru": {
        "item_name": "Никана Прайм Чертеж",
        "description": "<p>Древний клинок, предшествующий закату Империи Орокин. Используя техники ковки, утерянные на протяжении веков, лезвие удалось сделать острее, чем у любой современной никаны.</p>",
        "wiki_link": "http://ru.warframe.wikia.com/wiki/%D0%9D%D0%B8%D0%BA%D0%B0%D0%BD%D0%B0_%D0%BF%D1%80%D0%B0%D0%B9%D0%BC",
        "icon": null,
        "thumb": null,
        "drop": [
            {
                "name": "Neo N5 Rare",
                "link": null
            },
            {
                "name": "Neo S8 Uncommon",
                "link": null
            },
            {
                "name": "Axi A1 Rare",
                "link": null
            }
        ]
    },
    "mastery_level": 0,
    "ducats": 65,
    "trading_tax": 2000
}