{
    "_id": "5bb7658e92ea46005b6d386d",
    "tags": [
        "mod",
        "pistol",
        "prime",
        "legendary"
    ],
    "icon": "icons/en/Primed_Expel_Grineer.e26c831370183283cb8d2fa1ec4aed6a.png",
    "thumb": "icons/en/thumbs/Primed_Expel_Grineer.e26c831370183283cb8d2fa1ec4aed6a.128x128.png",
    "icon_format": "port",
    "url_name": "primed_expel_grineer",
    "tradable": true,
    "en": {
        "item_name": "Primed Expel Grineer",
        "description": "<p>Primed Expel Grineer increases the damage of secondary weapons against Grineer. The mod increases both the base damage and elemental damage of a weapon.</p>",
        "wiki_link": "http://warframe.wikia.com/wiki/Primed_Expel_Grineer",
        "drop": [
            {
                "name": "Baro Ki'Teer",
                "link": null
            }
        ]
    },
    "ru": {
        "item_name": "Изгнание Прайм: Гринир",
        "description": "<p>Изгнание Прайм: Гринир — легендарный мод для вторичного оружия, увеличивающий наносимый урон по противникам фракции Гринир.</p>",
        "wiki_link": "http://ru.warframe.wikia.com/wiki/%D0%98%D0%B7%D0%B3%D0%BD%D0%B0%D0%BD%D0%B8%D0%B5_%D0%9F%D1%80%D0%B0%D0%B9%D0%BC:_%D0%93%D1%80%D0%B8%D0%BD%D0%B8%D1%80",
        "icon": null,
        "thumb": null,
        "drop": [
            {
                "name": "Baro Ki'Teer",
                "link": null
            }
        ]
    },
    "rarity": "legendary",
    "mod_max_rank": 10,
    "trading_tax": 1000000
}