{
    "_id": "5b6b4850b6de79023813f39e",
    "tags": [
        "void trader",
        "warframe",
        "mod",
        "prime",
        "legendary"
    ],
    "icon": "icons/en/Primed_Quickdraw.1768ebb4f9758fa903319e3979fa2239.png",
    "thumb": "icons/en/thumbs/Primed_Quickdraw.1768ebb4f9758fa903319e3979fa2239.128x128.png",
    "icon_format": "port",
    "url_name": "primed_quickdraw",
    "tradable": true,
    "en": {
        "item_name": "Primed Quickdraw",
        "description": "<p>Primed Quickdraw is the Primed version of Quickdraw mod, increasing the reloading speed of a pistol by 8% per rank for a maximum of 88% at rank 10.</p>",
        "wiki_link": "http://warframe.wikia.com/wiki/Primed_Quickdraw",
        "drop": [
            {
                "name": "Baro Ki'Teer",
                "link": null
            }
        ]
    },
    "ru": {
        "item_name": "Быстрохват Прайм",
        "description": "<p>Быстрохват Прайм — легендарный мод для вторичного оружия, который увеличивает скорость перезарядки.</p>",
        "wiki_link": "http://ru.warframe.wikia.com/wiki/%D0%91%D1%8B%D1%81%D1%82%D1%80%D0%BE%D1%85%D0%B2%D0%B0%D1%82_%D0%9F%D1%80%D0%B0%D0%B9%D0%BC",
        "icon": null,
        "thumb": null,
        "drop": [
            {
                "name": "Baro Ki'Teer",
                "link": null
            }
        ]
    },
    "rarity": "legendary",
    "mod_max_rank": 10,
    "trading_tax": 1000000
}