{
    "_id": "5baa8bbf4567de01ac283499",
    "tags": [
        "blueprint",
        "prime"
    ],
    "icon": "icons/en/Rubico_Prime_Set.2071211bc2436d4e768dbb61f98f6efd.png",
    "thumb": "icons/en/thumbs/Rubico_Prime_Set.2071211bc2436d4e768dbb61f98f6efd.128x128.png",
    "icon_format": "land",
    "sub_icon": "sub_icons/blueprint_128x128.png",
    "url_name": "rubico_prime_blueprint",
    "tradable": true,
    "part_of_set": [
        "5baa8bbe4567de01ac283491",
        "5baa8bbf4567de01ac283493",
        "5baa8bbf4567de01ac283494",
        "5baa8bbf4567de01ac283498",
        "5baa8bbf4567de01ac283499"
    ],
    "set_root": false,
    "en": {
        "item_name": "Rubico Prime Blueprint",
        "description": "<p>The Rubico Prime is the Primed variant of the revolver-styled Rubico Sniper Rifle.</p>",
        "wiki_link": "http://warframe.wikia.com/wiki/Rubico_Prime",
        "drop": [
            {
                "name": "Meso R1 Rare",
                "link": null
            }
        ],
        "codex": ""
    },
    "ru": {
        "item_name": "Рубико Прайм Чертеж",
        "description": "<p>The Rubico Prime is the Primed variant of the revolver-styled Rubico Sniper Rifle.</p>",
        "wiki_link": "http://ru.warframe.wikia.com/wiki/%D0%A0%D1%83%D0%B1%D0%B8%D0%BA%D0%BE_%D0%9F%D1%80%D0%B0%D0%B9%D0%BC",
        "icon": null,
        "thumb": null,
        "drop": [
            {
                "name": "Мезо R1 Редкая",
                "link": null
            }
        ]
    },
    "mastery_level": 12,
    "ducats": 100,
    "trading_tax": 2000
}