{
    "_id": "5be5f5a43ffcc7038857f12b",
    "tags": [
        "gems"
    ],
    "icon": "icons/en/Star_Amarast.ca85eb3d49ec07b1209b869e21aabe8f.png",
    "thumb": "icons/en/thumbs/Star_Amarast.ca85eb3d49ec07b1209b869e21aabe8f.128x128.png",
    "icon_format": "port",
    "url_name": "star_amarast",
    "tradable": true,
    "en": {
        "item_name": "Star Amarast",
        "description": "<p>Polished and cut to perfection.</p>",
        "wiki_link": null,
        "drop": []
    },
    "ru": {
        "item_name": "Star Amarast",
        "description": "<p>Polished and cut to perfection.</p>",
        "wiki_link": null,
        "icon": null,
        "thumb": null,
        "drop": []
    }
}