{
    "_id": "5ada1ab3b2b6a80bb33793f4",
    "tags": [
        "void trader",
        "rifle"
    ],
    "icon": "icons/en/Supra_Vandal.f8186c7314e1599aeb861fce024e701d.png",
    "thumb": "icons/en/thumbs/Supra_Vandal.f8186c7314e1599aeb861fce024e701d.128x128.png",
    "icon_format": "land",
    "url_name": "supra_vandal",
    "tradable": true,
    "en": {
        "item_name": "Supra Vandal",
        "description": "<p>The Supra Vandal is the Vandal version of the Supra assault rifle.</p>",
        "wiki_link": "http://warframe.wikia.com/wiki/Supra_Vandal",
        "drop": [],
        "codex": "A customized version of the powerful Supra, featuring a metallic finish and Lotus decal."
    },
    "ru": {
        "item_name": "Супра Вандал",
        "description": "<p>Супра Вандал — улучшенная версия лазерного орудия Супра, обладающая увеличенной обоймой, запасом патронов и точностью.</p>",
        "wiki_link": "http://ru.warframe.wikia.com/wiki/%D0%A1%D1%83%D0%BF%D1%80%D0%B0_%D0%92%D0%B0%D0%BD%D0%B4%D0%B0%D0%BB",
        "icon": null,
        "thumb": null,
        "drop": []
    },
    "mastery_level": 14,
    "trading_tax": 2000
}