{
    "_id": "55158cd9e7798915ee6bd13f",
    "tags": [
        "parts",
        "prime",
        "chassis",
        "warframe"
    ],
    "icon": "icons/en/Volt_Prime_Set.9481daa3eb02aaec1108cdbeeaeea159.png",
    "thumb": "icons/en/thumbs/Volt_Prime_Set.9481daa3eb02aaec1108cdbeeaeea159.128x128.png",
    "icon_format": "port",
    "sub_icon": "sub_icons/chassis_128x128.png",
    "url_name": "volt_prime_chassis",
    "tradable": true,
    "part_of_set": [
        "56783f24cbfa8f0432dd89b2",
        "55244820e779890907ef6805",
        "55158cd9e7798915ee6bd13f",
        "55158cd0e7798915e9d64c1e",
        "55158ce0e7798915f4c95b78"
    ],
    "set_root": false,
    "en": {
        "item_name": "Volt Prime Chassis",
        "description": "<p>Release Date: March 24th, 2015</p><p>Volt Prime is the primed variant of the Volt Warframe featuring more powerful stats: possessing a higher energy capacity and armor, as well as an additional  polarity.</p>",
        "wiki_link": "http://warframe.wikia.com/wiki/Volt_Prime_Chassis",
        "drop": [
            {
                "name": "Meso V2 Uncommon",
                "link": null
            },
            {
                "name": "Axi V8 Uncommon",
                "link": null
            },
            {
                "name": "Meso V3 Uncommon",
                "link": null
            }
        ],
        "codex": "A glorious warrior from the past, Volt Prime features the same abilities as Volt, but with unique mod polarities for greater customization."
    },
    "ru": {
        "item_name": "Вольт Прайм Каркас",
        "description": "<p>Вольт Прайм — легкобронированный Варфрейм, использующий электрические навыки, которые заставляют биться толпу врагов в конвульсиях. В арсенале Вольта Прайм также имеется пара вспомогательных способностей, позволяющие устроить себе надёжную защиту, или ускорить себя и своих союзников.</p>",
        "wiki_link": "http://ru.warframe.wikia.com/wiki/%D0%92%D0%BE%D0%BB%D1%8C%D1%82",
        "icon": null,
        "thumb": null,
        "drop": [
            {
                "name": "Meso V2 Uncommon",
                "link": null
            },
            {
                "name": "Axi V8 Uncommon",
                "link": null
            },
            {
                "name": "Meso V3 Uncommon",
                "link": null
            }
        ]
    },
    "ducats": 45,
    "trading_tax": 4000
}