{
    "_id": "5b50a3ad3a84fd02a782324c",
    "tags": [
        "mod",
        "pve",
        "rare"
    ],
    "icon": "icons/en/Warding_Thurible.73ca05e0681f7517d599fbcd874f7124.png",
    "thumb": "icons/en/thumbs/Warding_Thurible.73ca05e0681f7517d599fbcd874f7124.128x128.png",
    "icon_format": "port",
    "url_name": "warding_thurible",
    "tradable": true,
    "en": {
        "item_name": "Warding Thurible",
        "description": "<p>Warding Thurible is a Warframe Augment Mod for Harrow that reduces damage taken by allies within Thurible's range when channeled, and grants extra energy charge if those Allies get hit.</p>",
        "wiki_link": "http://warframe.wikia.com/wiki/Warding_Thurible",
        "drop": [
            {
                "name": "Arbiters of Hexis",
                "link": null
            },
            {
                "name": "Red Veil",
                "link": null
            }
        ]
    },
    "ru": {
        "item_name": "Оберегающее Кадило",
        "description": "<p>Оберегающее кадило — мод-аугмент для Варфрейма Харроу, изменяющий способность Кадило. Во время взмахов кадилом союзники которые находятся в радиусе действия способности получают на 40% меньше урона, а также восстанавливают 0.5 энергии при получении повреждений.</p>",
        "wiki_link": "http://ru.warframe.wikia.com/wiki/%D0%9E%D0%B1%D0%B5%D1%80%D0%B5%D0%B3%D0%B0%D1%8E%D1%89%D0%B5%D0%B5_%D0%9A%D0%B0%D0%B4%D0%B8%D0%BB%D0%BE",
        "icon": "icons/ru/Warding_Thurible.2fcbcae25d5bb4703860701512281b12.png",
        "thumb": "icons/ru/thumbs/Warding_Thurible.2fcbcae25d5bb4703860701512281b12.128x128.png",
        "drop": [
            {
                "name": "Красная Вуаль",
                "link": null
            },
            {
                "name": "Арбитры Гексиса",
                "link": null
            }
        ]
    },
    "rarity": "rare",
    "mod_max_rank": 3,
    "trading_tax": 8000
}