{
    "_id": "5be5f5a43ffcc7038857f136",
    "tags": [
        "fish"
    ],
    "icon": "icons/en/Adorned_Longwinder.e657ba2dcf9d2f6674dd5fda01b44bba.png",
    "thumb": "icons/en/thumbs/Adorned_Longwinder.e657ba2dcf9d2f6674dd5fda01b44bba.128x128.png",
    "icon_format": "land",
    "url_name": "adorned_longwinder",
    "tradable": true,
    "en": {
        "item_name": "Adorned Longwinder",
        "description": "<p>Repairs leaks and clear blockages within the aqua systems. It can be found in the lake on Venus.</p>",
        "wiki_link": null,
        "drop": []
    },
    "ru": {
        "item_name": "Adorned Longwinder",
        "description": "<p>Repairs leaks and clear blockages within the aqua systems. It can be found in the lake on Venus.</p>",
        "wiki_link": null,
        "icon": null,
        "thumb": null,
        "drop": []
    }
}