{
    "_id": "5be5f5a33ffcc7038857f126",
    "tags": [
        "fish"
    ],
    "icon": "icons/en/Adorned_Charamote.3efc64b1c9bd869fd13eae668674206a.png",
    "thumb": "icons/en/thumbs/Adorned_Charamote.3efc64b1c9bd869fd13eae668674206a.128x128.png",
    "icon_format": "port",
    "url_name": "adorned_charamote",
    "tradable": true,
    "en": {
        "item_name": "Adorned Charamote",
        "description": "<p>Its primary function is to reconstruct the bio-material used to regenerate Orokin structures. It can be found in cave pools on Venus.</p>",
        "wiki_link": null,
        "drop": []
    },
    "ru": {
        "item_name": "Adorned Charamote",
        "description": "<p>Its primary function is to reconstruct the bio-material used to regenerate Orokin structures. It can be found in cave pools on Venus.</p>",
        "wiki_link": null,
        "icon": null,
        "thumb": null,
        "drop": []
    }
}