{
    "_id": "5a26c320c2c9e903a8381331",
    "tags": [
        "arcane enhancements",
        "zaw"
    ],
    "icon": "icons/en/Exodia_Epidemic.3807403ba71019a6186468b251bc1d3a.png",
    "thumb": "icons/en/thumbs/Exodia_Epidemic.3807403ba71019a6186468b251bc1d3a.128x128.png",
    "icon_format": "land",
    "url_name": "exodia_epidemic",
    "tradable": true,
    "en": {
        "item_name": "Exodia Epidemic",
        "description": "<p>Exodia Epidemic is an Arcane Enhancement for Zaws that unleashes a shockwave of Infested energy that suspends enemies caught in the blast radius, generated from the melee ground slam performed immediately after a bullet jump or double jump.</p>",
        "wiki_link": "http://warframe.wikia.com/wiki/Exodia_Epidemic",
        "drop": [
            {
                "name": "Operation: Plague Star",
                "link": "http://warframe.wikia.com/wiki/Operation:_Plague_Star"
            }
        ]
    },
    "ru": {
        "item_name": "Эпидемия Эксодии",
        "description": "<p>Эпидемия Эксодии - мистификатор для Зо. Удар по земле оружием ближнего боя после прыжка-выстрела или двойного прыжка создает ударную волну из Зараженной энергии, которая оглушает врагов в радиусе взрыва.</p>",
        "wiki_link": "http://ru.warframe.wikia.com/wiki/%D0%AD%D0%BF%D0%B8%D0%B4%D0%B5%D0%BC%D0%B8%D1%8F_%D0%AD%D0%BA%D1%81%D0%BE%D0%B4%D0%B8%D0%B8",
        "icon": null,
        "thumb": null,
        "drop": [
            {
                "name": "Чумная Звезда",
                "link": "http://ru.warframe.wikia.com/wiki/%D0%9E%D0%BF%D0%B5%D1%80%D0%B0%D1%86%D0%B8%D1%8F:_%D0%A7%D1%83%D0%BC%D0%BD%D0%B0%D1%8F_%D0%97%D0%B2%D0%B5%D0%B7%D0%B4%D0%B0"
            }
        ]
    },
    "mod_max_rank": 3,
    "trading_tax": 1000000
}