{
    "_id": "5be701153ffcc703e462c70d",
    "tags": [
        "mod",
        "k-drive"
    ],
    "icon": "icons/en/Inertia_Dampeners.4f6b35345fb2236ce75bb4daf7b014de.png",
    "thumb": "icons/en/thumbs/Inertia_Dampeners.4f6b35345fb2236ce75bb4daf7b014de.128x128.png",
    "icon_format": "port",
    "url_name": "inertia_dampeners",
    "tradable": true,
    "en": {
        "item_name": "Inertia Dampeners",
        "description": "<p>+1 Point Multiplier to Trick Score</p>",
        "wiki_link": null,
        "drop": []
    },
    "ru": {
        "item_name": "Inertia Dampeners",
        "description": "<p>+1 Point Multiplier to Trick Score</p>",
        "wiki_link": null,
        "icon": null,
        "thumb": null,
        "drop": []
    },
    "rarity": "uncommon",
    "mod_max_rank": 3,
    "trading_tax": 4000
}