{
    "_id": "5be701103ffcc703e462c702",
    "tags": [
        "mod",
        "k-drive"
    ],
    "icon": "icons/en/Kinetic_Friction.1622bc126e8d0db696bc1b7439220e0f.png",
    "thumb": "icons/en/thumbs/Kinetic_Friction.1622bc126e8d0db696bc1b7439220e0f.128x128.png",
    "icon_format": "port",
    "url_name": "kinetic_friction",
    "tradable": true,
    "en": {
        "item_name": "Kinetic Friction",
        "description": "<p>Grinding builds up a charge that is released when landing the trick, dealing 50 <DT_ELECTRICITY>Electric Damage to enemies within 1m.</p>",
        "wiki_link": null,
        "drop": []
    },
    "ru": {
        "item_name": "Kinetic Friction",
        "description": "<p>Grinding builds up a charge that is released when landing the trick, dealing 50 <DT_ELECTRICITY>Electric Damage to enemies within 1m.</p>",
        "wiki_link": null,
        "icon": null,
        "thumb": null,
        "drop": []
    },
    "rarity": "uncommon",
    "mod_max_rank": 3,
    "trading_tax": 4000
}